{
    "web": {
        "client_id": "232879870303-iqg3cegdqnsc7rj80qu0ol8li8r5j0vq.apps.googleusercontent.com",
        "project_id": "bouncer-205819",
        "auth_uri": "https://accounts.google.com/o/oauth2/auth",
        "token_uri": "https://accounts.google.com/o/oauth2/token",
        "auth_provider_x509_cert_url": "https://www.googleapis.com/oauth2/v1/certs",
        "client_secret": "b93a7LyaW7R3HZoZdkwjA_Ng",
        "redirect_uris": [
        "http://bouncer.beta.livspace.com/oauth2callback",
        "http://bouncer.alpha.livspace.com/oauth2callback",
        "http://bouncer.livspace.com/oauth2callback",
        "http://bouncer.alpha2.livspace.com/oauth2callback"
        ],
        "javascript_origins": [
        "http://bouncer.beta.livspace.com",
        "http://bouncer.alpha.livspace.com",
        "http://bouncer.livspace.com",
        "http://bouncer.alpha2.livspace.com"
        ]
    }
}
